...........................
----------------------------------------------------------------------
Ran 27 tests in 1.044s

OK
Name             Stmts   Miss Branch BrPart  Cover   Missing
------------------------------------------------------------
Collatz.py          44      0     20      0   100%
TestCollatz.py     114      0      0      0   100%
------------------------------------------------------------
TOTAL              158      0     20      0   100%
